Name,Sex,BirthDate,WeightClassKg,Equipment,Squat1Kg,Squat2Kg,Squat3Kg,Best3SquatKg,Bench1Kg,Bench2Kg,Bench3Kg,Best3BenchKg,Deadlift1Kg,Deadlift2Kg,Deadlift3Kg,Best3DeadliftKg,TotalKg,Event,Place,BodyweightKg,Division
William Jackson #1,M,,52,Single-ply,135,142.5,-152.5,142.5,75,80,-82.5,80,182.5,-195,195,195,417.5,SBD,1,,Open
Anthony Carver,M,,52,Single-ply,-130,137.5,-152.5,137.5,77.5,-87.5,-87.5,77.5,185,-205,-205,185,400,SBD,2,,Open
R. Green,M,,52,Single-ply,-140,-140,-140,,,,,,,,,,,SBD,DQ,,Open
Dave Weiss,M,,56,Single-ply,172.5,182.5,-185,182.5,-122.5,122.5,-147.5,122.5,217.5,-227.5,-227.5,217.5,522.5,SBD,1,,Open
J. Smith #11,M,,56,Single-ply,175,187.5,-195,187.5,90,100,105,105,195,210,-222.5,210,502.5,SBD,2,,Open
Andrew Lee,M,,56,Single-ply,-182.5,182.5,-192.5,182.5,-132.5,132.5,140,140,-177.5,177.5,-200,177.5,500,SBD,3,,Open
Bradford Olson,M,,60,Single-ply,215,227.5,232.5,232.5,130,137.5,142.5,142.5,205,215,-220,215,590,SBD,1,,Open
Eric Kupperstein,M,,60,Single-ply,212.5,-220,-222.5,212.5,117.5,122.5,-127.5,122.5,240,-250,-257.5,240,575,SBD,2,,Open
Ron Hoff,M,,60,Single-ply,205,215,-222.5,215,127.5,137.5,140,140,215,-227.5,-227.5,215,570,SBD,3,,Open
Anthony Pallas,M,,60,Single-ply,-205,205,217.5,217.5,110,-120,-120,110,205,-227.5,-227.5,205,532.5,SBD,4,,Open
Miguel Castro,M,,60,Single-ply,160,-185,-185,160,92.5,102.5,115,115,255,-270,-270,255,530,SBD,5,,Open
James Benemerito,M,,67.5,Single-ply,235,247.5,255,255,155,162.5,167.5,167.5,272.5,-290,-290,272.5,695,SBD,1,,Open
Lloyd Weinstein,M,,67.5,Single-ply,215,230,242.5,242.5,127.5,137.5,-145,137.5,227.5,247.5,275,275,655,SBD,2,,Open
Greg Page,M,,67.5,Single-ply,250,257.5,-262.5,257.5,140,-147.5,-147.5,140,245,247.5,255,255,652.5,SBD,3,,Open
Pat Beaumaster,M,,67.5,Single-ply,242.5,257.5,270,270,137.5,-145,145,145,227.5,-237.5,237.5,237.5,652.5,SBD,4,,Open
A. Thomas,M,,67.5,Single-ply,225,-237.5,237.5,237.5,-157.5,157.5,165,165,225,-227.5,-232.5,225,627.5,SBD,5,,Open
J. Jacobs,M,,67.5,Single-ply,215,227.5,-240,227.5,112.5,117.5,-122.5,117.5,212.5,230,-237.5,230,575,SBD,6,,Open
John Audia,M,,67.5,Single-ply,-195,-225,-225,,,,,,,,,,,SBD,DQ,,Open
Robert Bridges,M,,75,Single-ply,-260,260,-272.5,260,162.5,167.5,172.5,172.5,-272.5,285,307.5,307.5,740,SBD,1,,Open
Laddie Gibson,M,,75,Single-ply,255,-275,280,280,182.5,190,195,195,265,-282.5,-282.5,265,740,SBD,2,,Open
Quincy Guzman,M,,75,Single-ply,280,-297.5,-297.5,280,150,-165,-165,150,245,255,-260,255,685,SBD,3,,Open
Joe Masher,M,,75,Single-ply,-232.5,-245,245,245,182.5,192.5,-197.5,192.5,235,245,247.5,247.5,685,SBD,4,,Open
Bill Scully,M,,75,Single-ply,-240,240,255,255,-142.5,152.5,-157.5,152.5,-250,250,-257.5,250,657.5,SBD,5,,Open
Larry Miller,M,,75,Single-ply,210,230,235,235,-192.5,192.5,-210,192.5,205,212.5,-227.5,212.5,640,SBD,6,,Open
Sunil Bhojwani,M,,75,Single-ply,-240,240,-260,240,147.5,157.5,-162.5,157.5,220,-240,240,240,637.5,SBD,7,,Open
Len Stires,M,,75,Single-ply,230,245,-255,245,157.5,-165,-167.5,157.5,230,-240,,230,632.5,SBD,8,,Open
Ray Benemerito,M,,82.5,Single-ply,300,315,327.5,327.5,182.5,192.5,200,200,320,-337.5,337.5,337.5,865,SBD,1,,Open
Greg Jones,M,,82.5,Single-ply,-300,300,315,315,-195,195,-205,195,290,-335,,290,800,SBD,2,,Open
Oluwabusola,M,,82.5,Single-ply,267.5,-282.5,-282.5,267.5,170,177.5,-182.5,177.5,272.5,280,-287.5,280,725,SBD,3,,Open
Joseph McAuliffe,M,,90,Single-ply,310,335,342.5,342.5,220,230,-232.5,230,277.5,287.5,-300,287.5,860,SBD,1,,Open
Bubba Stokes,M,,90,Single-ply,290,305,310,310,182.5,192.5,197.5,197.5,290,310,322.5,322.5,830,SBD,2,,Open
Anthony Harris #1,M,,90,Single-ply,320,-330,-330,320,190,-197.5,-197.5,190,320,-332.5,-332.5,320,830,SBD,3,,Open
H. Girard,M,,90,Single-ply,297.5,312.5,-322.5,312.5,175,190,-195,190,-280,280,-300,280,782.5,SBD,4,,Open
J. Smith #10,M,,90,Single-ply,-282.5,282.5,-295,282.5,177.5,-187.5,-187.5,177.5,282.5,290,-300,290,750,SBD,5,,Open
L. Johnson,M,,90,Single-ply,262.5,272.5,-287.5,272.5,172.5,192.5,200,200,265,-272.5,,265,737.5,SBD,6,,Open
Russell Jenness,M,,90,Single-ply,250,262.5,270,270,187.5,197.5,-205,197.5,240,255,260,260,727.5,SBD,7,,Open
Paul Fiorisi,M,,90,Single-ply,262.5,275,-287.5,275,182.5,195,205,205,220,230,,230,710,SBD,8,,Open
J. Shraub,M,,90,Single-ply,-310,-310,-310,,,,,,,,,,,SBD,DQ,,Open
Brian Callahan,M,,90,Single-ply,-277.5,-277.5,-277.5,,,,,,,,,,,SBD,DQ,,Open
Jim Morton,M,,100,Single-ply,320,-330,335,335,200,212.5,220,220,322.5,340,352.5,352.5,907.5,SBD,1,,Open
Kent Johnson,M,,100,Single-ply,-317.5,317.5,-337.5,317.5,175,185,190,190,320,347.5,-360,347.5,855,SBD,2,,Open
Shawn Cain,M,,100,Single-ply,-292.5,292.5,307.5,307.5,187.5,195,197.5,197.5,305,322.5,-325,322.5,827.5,SBD,3,,Open
A. Simmons,M,,100,Single-ply,297.5,315,320,320,172.5,-185,-185,172.5,330,-342.5,-342.5,330,822.5,SBD,4,,Open
B. Rigert,M,,100,Single-ply,-300,300,330,330,185,200,-207.5,200,275,290,-302.5,290,820,SBD,5,,Open
Chad Holmes,M,,100,Single-ply,-307.5,307.5,-320,307.5,172.5,-182.5,-182.5,172.5,335,-362.5,-362.5,335,815,SBD,6,,Open
Richard Wenner,M,,100,Single-ply,302.5,-317.5,-327.5,302.5,205,212.5,217.5,217.5,-290,290,-305,290,810,SBD,7,,Open
Scott Waits,M,,100,Single-ply,315,-330,330,330,190,-197.5,-197.5,190,272.5,-285,-285,272.5,792.5,SBD,8,,Open
J. Krause,M,,100,Single-ply,280,302.5,-307.5,302.5,187.5,197.5,-207.5,197.5,280,-317.5,-317.5,280,780,SBD,9,,Open
D. Schleich,M,,100,Single-ply,310,-327.5,332.5,332.5,-175,-177.5,177.5,177.5,-260,260,-272.5,260,770,SBD,10,,Open
Brian Finn,M,,100,Single-ply,290,-305,-315,290,165,175,-177.5,175,282.5,292.5,-297.5,292.5,757.5,SBD,11,,Open
J. Young,M,,100,Single-ply,275,-285,-285,275,-175,-175,-175,,,,,,,SBD,DQ,,Open
Chris Siapanides,M,,110,Single-ply,-340,340,-380,340,200,215,-220,215,312.5,325,-370,325,880,SBD,1,,Open
Eric Arnold,M,,110,Single-ply,347.5,-360,-360,347.5,-205,210,215,215,302.5,315,-317.5,315,877.5,SBD,2,,Open
Ron Walsh,M,,110,Single-ply,302.5,-312.5,-312.5,302.5,230,242.5,-247.5,242.5,272.5,290,-295,290,835,SBD,3,,Open
Skopu Savaiinaea,M,,110,Single-ply,-327.5,327.5,347.5,347.5,180,-185,-190,180,280,305,-320,305,832.5,SBD,4,,Open
Darren Robinson,M,,110,Single-ply,-305,-305,305,305,197.5,-202.5,202.5,202.5,305,320,-325,320,827.5,SBD,5,,Open
Jim Dundon,M,,110,Single-ply,282.5,-310,-320,282.5,185,192.5,200,200,270,-280,-280,270,752.5,SBD,6,,Open
R. Cameron,M,,110,Single-ply,-282.5,282.5,-305,282.5,-195,195,-210,195,235,250,-260,250,727.5,SBD,7,,Open
Todd Weidow,M,,110,Single-ply,60,,,60,-185,197.5,-205,197.5,60,,,60,317.5,SBD,8,,Open
G. Wagner,M,,110,Single-ply,310,-330,-330,310,-195,-195,-195,,,,,,,SBD,DQ,,Open
Raoul Donati,M,,110,Single-ply,-340,-345,-350,,,,,,,,,,,SBD,DQ,,Open
Ray Ebner,M,,110,Single-ply,-310,-310,-310,,,,,,,,,,,SBD,DQ,,Open
Tony Leiato,M,,125,Single-ply,350,365,377.5,377.5,245,265,272.5,272.5,297.5,305,-330,305,955,SBD,1,,Open
L. Madkins,M,,125,Single-ply,295,320,-332.5,320,235,240,245,245,-327.5,327.5,,327.5,892.5,SBD,2,,Open
T. Bonner,M,,125,Single-ply,-342.5,342.5,-350,342.5,232.5,-237.5,-237.5,232.5,-297.5,-297.5,297.5,297.5,872.5,SBD,3,,Open
Nick Best,M,,125,Single-ply,320,-342.5,-342.5,320,220,230,232.5,232.5,300,310,-320,310,862.5,SBD,4,,Open
Terrance Brooks,M,,125,Single-ply,320,-327.5,,320,192.5,205,-212.5,205,295,-327.5,-327.5,295,820,SBD,5,,Open
S. Stoughton,M,,125,Single-ply,-315,315,-337.5,315,195,200,-205,200,297.5,-307.5,-307.5,297.5,812.5,SBD,6,,Open
K. Foster,M,,125,Single-ply,297.5,-320,322.5,322.5,172.5,182.5,-187.5,182.5,270,285,292.5,292.5,797.5,SBD,7,,Open
S. Holt,M,,125,Single-ply,280,292.5,300,300,182.5,-212.5,215,215,265,280,-300,280,795,SBD,8,,Open
W. Buckley,M,,125,Single-ply,272.5,-295,-302.5,272.5,-227.5,-227.5,227.5,227.5,250,-275,-282.5,250,750,SBD,9,,Open
S. Lawliss,M,,125,Single-ply,285,-305,-305,285,195,-215,-215,195,-265,-265,265,265,745,SBD,10,,Open
Bill Gillespie,M,,125,Single-ply,337.5,355,-365,355,-242.5,-242.5,-242.5,,,,,,,SBD,DQ,,Open
Moses Battles,M,,125,Single-ply,355,-382.5,,355,,,,,,,,,,SBD,DQ,,Open
Hank Sargent,M,,125,Single-ply,-337.5,-337.5,-337.5,,,,,,,,,,,SBD,DQ,,Open
Beau Moore #1,M,1965-07-04,145,Single-ply,330,352.5,360,360,260,272.5,275,275,307.5,330,332.5,332.5,967.5,SBD,1,,Open
Marvin Reeves,M,,145,Single-ply,355,-375,375,375,232.5,245,-250,245,312.5,335,340,340,960,SBD,2,,Open
Robert Dempsey,M,,145,Single-ply,355,380,387.5,387.5,227.5,235,-240,235,320,332.5,-345,332.5,955,SBD,3,,Open
Mike Grant,M,,145,Single-ply,307.5,330,347.5,347.5,-255,-265,265,265,330,342.5,-357.5,342.5,955,SBD,4,,Open
Brad Gillingham,M,,145,Single-ply,332.5,347.5,357.5,357.5,237.5,245,250,250,330,340,-350,340,947.5,SBD,5,,Open
Mark Philippi,M,,145,Single-ply,340,357.5,-365,357.5,220,225,232.5,232.5,337.5,352.5,-367.5,352.5,942.5,SBD,6,,Open
Greg Payne,M,,145,Single-ply,342.5,-365,375,375,235,-242.5,-242.5,235,290,-302.5,302.5,302.5,912.5,SBD,7,,Open
Robert Huesman,M,,145,Single-ply,377.5,-402.5,-402.5,377.5,212.5,-217.5,-217.5,212.5,290,-300,-300,290,880,SBD,8,,Open
Tom Schott,M,,145,Single-ply,375,-400,-400,375,200,-210,-210,200,,,,,,SBD,DQ,,Open
Mark Henry,M,,145+,Wraps,400,-430,430,430,200,210,-220,210,352.5,387.5,410,410,1050,SBD,1,184.07,Open
Sean Culnan,M,,145+,Single-ply,337.5,355,360,360,232.5,242.5,-250,242.5,285,307.5,317.5,317.5,920,SBD,2,,Open
Peter Gisondi,M,,145+,Single-ply,320,335,342.5,342.5,217.5,-230,230,230,275,-330,-330,275,847.5,SBD,3,,Open
R. Dinksen,M,,145+,Single-ply,305,-335,-345,305,-195,195,-217.5,195,247.5,260,-280,260,760,SBD,4,,Open
Vae Mafuli,M,,145+,Single-ply,-365,-365,-365,,,,,,,,,,,SBD,DQ,,Open
John Binkowski,M,,145+,Single-ply,-362.5,-362.5,-362.5,,,,,,,,,,,SBD,DQ,,Open
