Place,Name,Sex,BirthDate,Age,Country,State,Equipment,Division,BodyweightKg,WeightClassKg,Squat1Kg,Squat2Kg,Squat3Kg,Best3SquatKg,Bench1Kg,Bench2Kg,Bench3Kg,Best3BenchKg,Deadlift1Kg,Deadlift2Kg,Deadlift3Kg,Best3DeadliftKg,TotalKg,Event
1,Rebecca South,F,1998-02-23,21,USA,TX,Raw,Juniors 20-23,81.4,82.5,97.5,105,-117.5,105,60,65,-72.5,65,110,120,132.5,132.5,302.5,SBD
1,Betty Schmidt,F,1976-12-06,42,USA,TX,Raw,Masters 40-44,78.6,82.5,145,160,-175,160,97.5,-102.5,105,105,155,165,182.5,182.5,447.5,SBD
1,Sherrie Marturo,F,1971-11-26,47,USA,TX,Raw,Masters 45-49,81.3,82.5,60,65,72.5,72.5,42.5,47.5,50,50,105,-112.5,112.5,112.5,235,SBD
1,Dana Kohls,F,1995-03-28,24,USA,TX,Raw,Open,65.4,67.5,62.5,67.5,-82.5,67.5,45,50,55,55,90,100,115,115,237.5,SBD
1,Hong Na Nguyen,F,1993-06-05,26,USA,TX,Raw,Open,71.6,75,95,100,105,105,47.5,52.5,-57.5,52.5,100,102.5,-105,102.5,260,SBD
1,Jayia Williams,F,1982-03-13,37,USA,TX,Raw,Open,80.7,82.5,107.5,117.5,137.5,137.5,60,65,-75,65,112.5,125,145,145,347.5,SBD
1,Cierra Reyes,F,2002-02-20,17,USA,TX,Wraps,Sub-Juniors 17-19,59.8,60,125,132.5,-142.5,132.5,47.5,-52.5,-52.5,47.5,130,137.5,140,140,320,SBD
NS,Rachael Malott,F,1992-02-26,,USA,MO,Wraps,Open,,,,,,,,,,,,,,,,SBD
1,Amanda Wolff,F,1989-10-16,30,USA,TX,Wraps,Open,73.4,75,172.5,182.5,-190,182.5,110,-117.5,-117.5,110,185,207.5,212.5,212.5,505,SBD
1,Caleb Pruett,M,2003-09-27,16,USA,TX,Raw,Teen 14-16,76.9,82.5,-135,142.5,157.5,157.5,85,-90,-90,85,137.5,147.5,162.5,162.5,405,SBD
1,Chris Box,M,1997-06-18,22,USA,TX,Raw,Juniors 20-23,87.4,90,242.5,255,-267.5,255,147.5,-155,-155,147.5,252.5,267.5,272.5,272.5,675,SBD
1,Ragnar Riley,M,1996-05-13,23,USA,TX,Raw,Juniors 20-23,107.1,110,230,-245,-245,230,-195,197.5,-200,197.5,245,260,275,275,702.5,SBD
1,Bobby Hall,M,1964-06-23,55,USA,TX,Raw,Masters 55-59,95.2,100,115,122.5,-127.5,122.5,105,-107.5,-107.5,105,152.5,160,-175,160,387.5,SBD
1,Alex Shaw,M,1995-02-28,24,USA,TX,Raw,Open,71,75,160,170,177.5,177.5,112.5,125,-132.5,125,205,-212.5,,205,507.5,SBD
1,Eric Rubio,M,1991-11-04,28,USA,TX,Raw,Open,81,82.5,210,220,227.5,227.5,127.5,137.5,142.5,142.5,240,-260,260,260,630,SBD
2,Raul Prado,M,1991-08-07,28,USA,TX,Raw,Open,82,82.5,195,205,-215,205,120,-127.5,-132.5,120,210,222.5,230,230,555,SBD
3,Justin Jasper,M,1995-05-11,24,USA,TX,Raw,Open,78.9,82.5,175,185,192.5,192.5,122.5,-127.5,127.5,127.5,215,227.5,-232.5,227.5,547.5,SBD
4,Sailesh Kadam,M,1995-01-28,24,USA,TX,Raw,Open,80.9,82.5,95,-110,110,110,82.5,90,100,100,135,145,160,160,370,SBD
DQ,Diego Jimenez,M,1994-07-11,25,USA,TX,Raw,Open,75.7,82.5,175,180,-185,180,-102.5,-102.5,-102.5,,185,192.5,197.5,197.5,,SBD
1,Peter Hartin,M,1994-06-27,25,USA,TX,Raw,Open,106,110,267.5,-272.5,,267.5,177.5,-187.5,-187.5,177.5,317.5,-335,,317.5,762.5,SBD
2,Austin Stroud,M,1994-05-24,25,USA,TX,Raw,Open,107.4,110,215,227.5,235,235,140,150,-155,150,265,280,287.5,287.5,672.5,SBD
3,Danny Contreras,M,1993-07-02,26,USA,TX,Raw,Open,102.9,110,190,202.5,207.5,207.5,130,140,-147.5,140,215,227.5,-232.5,227.5,575,SBD
1,Kyle Carroll,M,1990-09-23,29,USA,TX,Raw,Open,120.7,125,185,202.5,217.5,217.5,155,160,170,170,215,232.5,240,240,627.5,SBD
NS,Ryan Leal,M,2000-08-19,,USA,TX,Wraps,Sub-Juniors 17-19,,,,,,,,,,,,,,,,SBD
1,Alex Mata,M,1998-08-29,21,USA,TX,Wraps,Juniors 20-23,66.5,67.5,182.5,197.5,-205,197.5,100,105,110,110,205,217.5,225,225,532.5,SBD
1,Abraham Ramirez #2,M,1997-12-01,21,USA,TX,Wraps,Juniors 20-23,76.6,82.5,227.5,242.5,255,255,170,175,182.5,182.5,250,275,-282.5,275,712.5,SBD
1,AJ Rose,M,1997-03-02,22,USA,TX,Wraps,Juniors 20-23,87.9,90,245,255,262.5,262.5,200,-210,210,210,267.5,280,287.5,287.5,760,SBD
1,Logan Moore,M,1976-11-22,42,USA,TX,Wraps,Masters 40-44,117,125,145,-155,155,155,-137.5,-137.5,137.5,137.5,145,165,-175,165,457.5,SBD
NS,Steve Johnson #2,M,1984-11-04,,USA,TX,Wraps,Open,,,,,,,,,,,,,,,,SBD
1,AJ Rose,M,1997-03-02,22,USA,TX,Wraps,Open,87.9,90,245,255,262.5,262.5,200,-210,210,210,267.5,280,287.5,287.5,760,SBD
2,Chris Galvan,M,2000-06-16,19,USA,TX,Wraps,Open,87.2,90,230,250,255,255,140,145,147.5,147.5,237.5,-260,260,260,662.5,SBD
1,Matt Meredith,M,,29,USA,TX,Wraps,Open,99.8,100,260,275,280,280,140,150,160,160,257.5,275,285,285,725,SBD
1,Taylor Woodman,M,1992-01-05,27,USA,TX,Wraps,Open,103.3,110,-250,-260,260,260,130,-137.5,-137.5,130,227.5,245,-260,245,635,SBD
1,Austin Zechman,M,1994-02-24,25,USA,TX,Wraps,Open,112.7,125,295,307.5,320,320,175,187.5,197.5,197.5,280,310,325,325,842.5,SBD
1,Taylor Cox,M,1992-06-22,27,USA,OK,Wraps,Open,131.9,140,280,295,310,310,182.5,190,-200,190,290,305,320,320,820,SBD
1,Adam Stephens,M,1991-09-30,28,USA,TX,Wraps,Open,183.8,140+,300,322.5,335,335,-195,205,-210,205,335,-367.5,-367.5,335,875,SBD
1,Julius Maddox,M,1987-05-13,32,USA,KY,Raw,Open,201.8,140+,,,,,310,337.5,,337.5,,,,,337.5,B
