Name,Country,WeightClassKg,Division,AgeClass,Sex,Best3BenchKg,Bench4Kg,Best3DeadliftKg,Deadlift4Kg,TotalKg,Event,Equipment,Place,Age,BodyweightKg
Craig Palmer,USA,90,Masters Law/Fire,40-999,M,195,,,,195,B,Multi-ply,1,,
B. Keynon,USA,90,Masters Law/Fire,40-999,M,145,,,,145,B,Multi-ply,2,,
Jeff Holloway,USA,100,Masters Law/Fire,40-999,M,160,,,,160,B,Multi-ply,1,,
Patrick Fay,USA,110,Masters Law/Fire,40-999,M,170,,,,170,B,Multi-ply,1,,
Robert Bish,USA,75,Law/Fire,,M,165,172.5,,,165,B,Multi-ply,1,,
D. Armitage,USA,75,Law/Fire,,M,120,,,,120,B,Multi-ply,2,,
Elliot Smith,USA,82.5,Law/Fire,,M,212.5,,,,212.5,B,Multi-ply,1,,
Barry Duran,USA,82.5,Law/Fire,,M,192.5,,,,192.5,B,Multi-ply,2,,
D. Compau,USA,82.5,Law/Fire,,M,130,,,,130,B,Multi-ply,3,,
Adrian Larsen,USA,100,Law/Fire,,M,192.5,200,,,192.5,B,Multi-ply,1,,
Travis Raz,USA,100,Law/Fire,,M,157.5,,,,157.5,B,Multi-ply,1,,
Don Bodenstab,USA,110,Law/Fire,,M,200,,,,200,B,Multi-ply,1,,
Manny Lujan,USA,110,Law/Fire,,M,197.5,,,,197.5,B,Multi-ply,2,,
Frank Wakakuwa,USA,125,Law/Fire,,M,277.5,,,,277.5,B,Multi-ply,1,,
B. Arizumi,USA,125,Law/Fire,,M,205,,,,205,B,Multi-ply,2,,
Malcolm Ahlo,USA,140,Law/Fire,,M,227.5,,,,227.5,B,Multi-ply,1,,
R. Russell,USA,140,Law/Fire,,M,185,,,,185,B,Multi-ply,2,,
Bill Duarte,USA,140+,Law/Fire,,M,292.5,302.5,,,292.5,B,Multi-ply,1,,146.06
Gerardo Merino,USA,52,Open,,M,117.5,120,,,117.5,B,Multi-ply,1,,44.45
Kerwin Unten,USA,56,Open,,M,170,,,,170,B,Multi-ply,1,,
Rolando de Leon,Guatemala,60,Open,,M,175,,,,175,B,Multi-ply,1,,
Evan Davidson,USA,67.5,Open,,M,170,,,,170,B,Multi-ply,1,,
Freddie Evangelista,USA,67.5,Open,,M,160,,,,160,B,Multi-ply,2,,
K. Luna,USA,67.5,Open,,M,147.5,,,,147.5,B,Multi-ply,3,,
Jim Godfrey,USA,67.5,Open,,M,125,,,,125,B,Multi-ply,4,,
Jason Yoshimura,USA,75,Open,,M,195,,,,195,B,Multi-ply,1,,
Steve Ward,USA,75,Open,,M,187.5,,,,187.5,B,Multi-ply,2,,
Shaun Bell,USA,75,Open,,M,187.5,,,,187.5,B,Multi-ply,3,,
J. Riley,USA,75,Open,,M,145,,,,145,B,Multi-ply,4,,
Mike Saito,USA,82.5,Open,,M,222.5,,,,222.5,B,Multi-ply,2,,
Byron Beebe,USA,82.5,Open,,M,225,,,,225,B,Multi-ply,1,,
Elliot Smith,USA,82.5,Open,,M,212.5,,,,212.5,B,Multi-ply,3,,
Barry Duran,USA,82.5,Open,,M,192.5,,,,192.5,B,Multi-ply,4,,
Allen Berry,USA,82.5,Open,,M,192.5,,,,192.5,B,Multi-ply,5,,
B. Cook,USA,82.5,Open,,M,187.5,,,,187.5,B,Multi-ply,6,,
Flavio Danna,Brazil,82.5,Open,,M,185,,,,185,B,Multi-ply,7,,
A. Allen,USA,82.5,Open,,M,175,,,,175,B,Multi-ply,8,,
J. Minor,USA,82.5,Open,,M,140,,,,140,B,Multi-ply,9,,
Gustavo Warrington,USA,90,Open,,M,252.5,,,,252.5,B,Multi-ply,1,,
Cleveland King,USA,90,Open,,M,217.5,,,,217.5,B,Multi-ply,2,,
Johnny Hernandez,USA,90,Open,,M,207.5,,,,207.5,B,Multi-ply,3,,
Anssi Ainali,Finland,90,Open,,M,192.5,,,,192.5,B,Multi-ply,4,,
Jeff Hoiby,USA,90,Open,,M,182.5,,,,182.5,B,Multi-ply,5,,
Evando Casagrande,Brazil,90,Open,,M,150,,,,150,B,Single-ply,7,,
Warren Orbaugh,Guatemala,90,Open,,M,165,,,,165,B,Multi-ply,6,,
Felipe Silva,USA,90,Open,,M,125,,,,125,B,Multi-ply,8,,
Larry Birgado,USA,100,Open,,M,247.5,,,,247.5,B,Multi-ply,1,,
Steve Beaudoin,USA,100,Open,,M,242.5,,,,242.5,B,Multi-ply,2,,
Shawn O'Kelley,USA,100,Open,,M,227.5,,,,227.5,B,Multi-ply,3,,
Matt LaMarque,USA,100,Open,,M,222.5,,,,222.5,B,Multi-ply,4,,
Jon Kobayashi,USA,100,Open,,M,210,,,,210,B,Multi-ply,5,,
Matt Crosby,USA,100,Open,,M,195,,,,195,B,Multi-ply,6,,
George Nelson,USA,110,Open,,M,255,,,,255,B,Multi-ply,1,53,
Victor Shaw,USA,110,Open,,M,195,,,,195,B,Multi-ply,2,,
Felipe Silva,USA,110,Open,,M,182.5,,,,182.5,B,Multi-ply,3,,
Tajinder Singh,India,110,Open,,M,170,,,,170,B,Multi-ply,4,,
Don Black,USA,110,Open,,M,,,,,,B,Multi-ply,DQ,,
Ryan Kennelly,USA,125,Open,,M,282.5,290,,,282.5,B,Multi-ply,1,,
Frank Wakakuwa,USA,125,Open,,M,277.5,,,,277.5,B,Multi-ply,2,,
Göran Rosén,Sweden,125,Open,,M,277.5,,,,277.5,B,Multi-ply,3,,
John Heikus,USA,125,Open,,M,227.5,,,,227.5,B,Multi-ply,4,,
Jerry Vest,USA,125,Open,,M,212.5,,,,212.5,B,Multi-ply,5,,
K. Delay,USA,125,Open,,M,207.5,,,,207.5,B,Multi-ply,6,,
R. Neff,USA,125,Open,,M,195,,,,195,B,Multi-ply,8,,
B. Arizumi,USA,125,Open,,M,205,,,,205,B,Multi-ply,7,,
Bill Gillespie,USA,140,Open,,M,282.5,285,,,282.5,B,Multi-ply,1,,
Tiny Meeker,USA,140,Open,,M,272.5,,,,272.5,B,Multi-ply,2,,
Steve Wong,USA,140,Open,,M,265,,,,265,B,Multi-ply,3,,
Jim Cunningham,USA,140,Open,,M,152.5,,,,152.5,B,Multi-ply,4,,
K. Kromer,USA,140,Open,,M,,,,,,B,Multi-ply,DQ,,
Bill Duarte,USA,140+,Open,,M,292.5,,,,292.5,B,Multi-ply,1,,146.06
Anthony Troutman,Canada,140+,Open,,M,237.5,,,,237.5,B,Multi-ply,2,,
Thom Chase,USA,140+,Open,,M,230,,,,230,B,Multi-ply,3,,
James Grendahl,USA,140+,Open,,M,227.5,,,,227.5,B,Multi-ply,4,,158.76
Joaquin Diaz de Leon,USA,140+,Open,,M,227.5,,,,227.5,B,Multi-ply,5,,
L. Haywood,USA,140+,Open,,M,220,,,,220,B,Multi-ply,6,,
T. Webber,USA,140+,Open,,M,217.5,,,,217.5,B,Multi-ply,7,,
Dean Munsey,USA,140+,Open,,M,205,,,,205,B,Multi-ply,8,,
R. Hudson,USA,140+,Open,,M,195,,,,195,B,Multi-ply,10,,
G. Howe,USA,140+,Open,,M,197.5,,,,197.5,B,Multi-ply,9,,
J. Bellino,USA,140+,Open,,M,182.5,,,,182.5,B,Multi-ply,11,,
B. Baker,Canada,140+,Open,,M,,,,,,B,Multi-ply,DQ,,
John Korn III,USA,75,Juniors,20-23,M,175,185,,,175,B,Multi-ply,1,,
Michael Manukian,USA,82.5,Juniors,20-23,M,200,,,,200,B,Multi-ply,1,,
Jason Whitby,USA,82.5,Juniors,20-23,M,172.5,,,,172.5,B,Multi-ply,2,,
Austin Slater,USA,90,Juniors,20-23,M,175,,,,175,B,Multi-ply,1,,
Chris Thorson,USA,90,Juniors,20-23,M,150,,,,150,B,Multi-ply,2,,
John Anthony,USA,90,Juniors,20-23,M,137.5,,,,137.5,B,Multi-ply,3,,
David Anderson #6,USA,90,Juniors,20-23,M,102.5,,,,102.5,B,Multi-ply,4,,
Matt LaMarque,USA,100,Juniors,20-23,M,222.5,232.5,,,222.5,B,Multi-ply,1,,
Arin Claybo,USA,100,Juniors,20-23,M,207.5,,,,207.5,B,Multi-ply,2,,
Thor Stangeland,USA,110,Juniors,20-23,M,200,,,,200,B,Multi-ply,1,,
Kevin Rose,USA,110,Juniors,20-23,M,182.5,,,,182.5,B,Multi-ply,2,,
Michael. Knudsen,USA,110,Juniors,20-23,M,170,,,,170,B,Multi-ply,3,,
Joel Thiessen,Canada,125,Juniors,20-23,M,192.5,,,,192.5,B,Multi-ply,1,,
Andrew Snider,USA,125,Juniors,20-23,M,,,,,,B,Multi-ply,DQ,,
Corey St. Clair,USA,140,Juniors,20-23,M,187.5,,,,187.5,B,Multi-ply,1,,
Murray Cairns,Canada,140,Juniors,20-23,M,145,,,,145,B,Multi-ply,2,,
Joaquin Diaz de Leon,USA,140+,Juniors,20-23,M,227.5,235,,,227.5,B,Multi-ply,1,,
Gerardo Merino,USA,52,Submasters,33-39,M,117.5,120,,,117.5,B,Multi-ply,1,,44.45
Jim Godfrey,USA,67.5,Submasters,33-39,M,125,,,,125,B,Multi-ply,1,,
Steve Ward,USA,75,Submasters,33-39,M,187.5,,,,187.5,B,Multi-ply,1,,
Vilmar Oliveira,Brazil,75,Submasters,33-39,M,167.5,,,,167.5,B,Multi-ply,2,,
Eric Lumpkin,USA,75,Submasters,33-39,M,165,,,,165,B,Multi-ply,3,,
D. Marxheimer,USA,75,Submasters,33-39,M,147.5,,,,147.5,B,Multi-ply,4,,
Allen Berry,USA,82.5,Submasters,33-39,M,192.5,,,,192.5,B,Multi-ply,1,,
Bob Mosteller,USA,82.5,Submasters,33-39,M,160,,,,160,B,Multi-ply,2,,
Dan Belanger,USA,82.5,Submasters,33-39,M,160,,,,160,B,Multi-ply,3,,
Steven Gall,USA,82.5,Submasters,33-39,M,150,,,,150,B,Multi-ply,4,,
Darris Piggee,USA,90,Submasters,33-39,M,217.5,,,,217.5,B,Multi-ply,1,,
Johnny Hernandez,USA,90,Submasters,33-39,M,207.5,,,,207.5,B,Multi-ply,2,,
Wendell Omura,USA,90,Submasters,33-39,M,200,,,,200,B,Multi-ply,3,,
Craig Palmer,USA,90,Submasters,33-39,M,195,,,,195,B,Multi-ply,4,,
Brian Baertlein,USA,90,Submasters,33-39,M,167.5,,,,167.5,B,Multi-ply,5,,
Donovan Brogan,USA,100,Submasters,33-39,M,202.5,,,,202.5,B,Multi-ply,1,,
Gordie Fraser,USA,100,Submasters,33-39,M,172.5,,,,172.5,B,Multi-ply,2,,
Carroll Moon,USA,110,Submasters,33-39,M,215,,,,215,B,Multi-ply,1,,
Owen Engelmann,USA,110,Submasters,33-39,M,192.5,,,,192.5,B,Multi-ply,2,,
Mike Spencer,USA,110,Submasters,33-39,M,190,,,,190,B,Multi-ply,3,,
Don Black,USA,110,Submasters,33-39,M,,,,,,B,Multi-ply,DQ,,
John Stewart,USA,125,Submasters,33-39,M,267.5,,,,267.5,B,Multi-ply,1,,
Phil Morrison,USA,125,Submasters,33-39,M,210,,,,210,B,Multi-ply,2,,
Greggs Ramsdell,USA,125,Submasters,33-39,M,195,,,,195,B,Multi-ply,3,,
William Pontius,USA,125,Submasters,33-39,M,180,,,,180,B,Multi-ply,4,,
Bill Gillespie,USA,140,Submasters,33-39,M,282.5,285,,,282.5,B,Multi-ply,1,,
John Barada,USA,140,Submasters,33-39,M,250,,,,250,B,Multi-ply,2,,
Jim Cunningham,USA,140,Submasters,33-39,M,242.5,,,,242.5,B,Multi-ply,3,,
Randy Shepard,USA,140+,Submasters,33-39,M,252.5,,,,252.5,B,Multi-ply,1,,
Art Ramsey,USA,140+,Submasters,33-39,M,242.5,,,,242.5,B,Multi-ply,2,,
Paul Ratsch,USA,140+,Submasters,33-39,M,205,,,,205,B,Multi-ply,3,,
C. Huwe,USA,140+,Submasters,33-39,M,197.5,,,,197.5,B,Multi-ply,4,,
J. Bellino,USA,140+,Submasters,33-39,M,182.5,,,,182.5,B,Multi-ply,5,,
Cyde Higa,USA,67.5,Masters 40-46,40-46,M,162.5,165,,,162.5,B,Multi-ply,1,,
Freddie Evangelista,USA,67.5,Masters 40-46,40-46,M,160,,,,160,B,Multi-ply,2,,
Sheldon Weingust,USA,67.5,Masters 40-46,40-46,M,157.5,,,,157.5,B,Multi-ply,3,,
Robert Avery #2,USA,75,Masters 40-46,40-46,M,132.5,,,,132.5,B,Multi-ply,1,,
Byron Beebe,USA,82.5,Masters 40-46,40-46,M,222.5,,,,222.5,B,Multi-ply,1,,
Bill Cox,USA,82.5,Masters 40-46,40-46,M,162.5,,,,162.5,B,Multi-ply,2,,
Raj Pal,India,90,Masters 40-46,40-46,M,120,,,,120,B,Multi-ply,1,,
Steve Beaudoin,USA,100,Masters 40-46,40-46,M,242.5,,,,242.5,B,Multi-ply,1,,
Shawn O'Kelley,USA,100,Masters 40-46,40-46,M,227.5,,,,227.5,B,Multi-ply,2,,
T. Elbert,USA,100,Masters 40-46,40-46,M,,,,,,B,Multi-ply,DQ,,
Willard Crossen Jr,USA,110,Masters 40-46,40-46,M,232.5,,,,232.5,B,Multi-ply,1,,
Roger Nelson,USA,110,Masters 40-46,40-46,M,205,,,,205,B,Multi-ply,2,,
Ioseb Kharabdzae,Georgia,110,Masters 40-46,40-46,M,200,,,,200,B,Multi-ply,3,,
Bennie Dooley,USA,125,Masters 40-46,40-46,M,227.5,,,,227.5,B,Multi-ply,1,,
Jerry Vest,USA,125,Masters 40-46,40-46,M,212.5,,,,212.5,B,Multi-ply,2,,
Don Frosland Jr,USA,125,Masters 40-46,40-46,M,210,,,,210,B,Multi-ply,3,,
Rene Echeverria,Ecuador,125,Masters 40-46,40-46,M,190,,,,190,B,Multi-ply,4,,
Steve Brown,USA,125,Masters 40-46,40-46,M,187.5,,,,187.5,B,Multi-ply,5,,
Michael Cain,USA,140,Masters 40-46,40-46,M,242.5,,,,242.5,B,Multi-ply,1,,
Russ Goodman,USA,140,Masters 40-46,40-46,M,195,,,,195,B,Multi-ply,2,,
David McCreary,USA,140,Masters 40-46,40-46,M,175,,,,175,B,Multi-ply,3,,
Brian Rehberg,USA,140+,Masters 40-46,40-46,M,185,,,,185,B,Multi-ply,1,,
Keith Ward,USA,140+,Masters 40-46,40-46,M,170,,,,170,B,Multi-ply,2,,
Rolando de Leon,Guatemala,60,Masters 47-53,47-53,M,175,,,,175,B,Multi-ply,1,,
Willis Wiger,USA,82.5,Masters 47-53,47-53,M,182.5,,,,182.5,B,Multi-ply,1,,
Dave Dimitre,USA,82.5,Masters 47-53,47-53,M,147.5,,,,147.5,B,Multi-ply,2,,
Tom Cushman,USA,82.5,Masters 47-53,47-53,M,125,,,,125,B,Multi-ply,3,,
Anthony Pasqualetti,USA,75,Masters 47-53,47-53,M,135,,,,135,B,Multi-ply,1,,
Ray Dohaniuk,USA,90,Masters 47-53,47-53,M,207.5,,,,207.5,B,Multi-ply,1,,
Willie Charlie Jones,USA,90,Masters 47-53,47-53,M,120,,,,120,B,Multi-ply,2,,
Steve Ramey,USA,100,Masters 47-53,47-53,M,197.5,,,,197.5,B,Multi-ply,1,,
Jon Paggett,USA,100,Masters 47-53,47-53,M,175,,,,175,B,Multi-ply,2,,
Rainer Gessman,Germany,100,Masters 47-53,47-53,M,160,,,,160,B,Multi-ply,3,,
George Nelson,USA,110,Masters 47-53,47-53,M,255,,,,255,B,Multi-ply,1,53,
Mike Magruder,USA,110,Masters 47-53,47-53,M,192.5,,,,192.5,B,Multi-ply,2,,
Tom Hennessy,USA,110,Masters 47-53,47-53,M,165,,,,165,B,Multi-ply,3,,
Carl Rosborough,USA,140,Masters 47-53,47-53,M,195,,,,195,B,Raw,1,,
Randy Patterson,USA,140+,Masters 47-53,47-53,M,235,,,,235,B,Multi-ply,1,,
James Grendahl,USA,140+,Masters 47-53,47-53,M,227.5,,,,227.5,B,Multi-ply,2,,158.76
Hans Naegerl,Germany,67.5,Masters 54-60,54-60,M,117.5,,,,117.5,B,Multi-ply,1,,
Wayne Paola,USA,75,Masters 54-60,54-60,M,152.5,,,,152.5,B,Multi-ply,1,,
Mitch Sperling,USA,82.5,Masters 54-60,54-60,M,152.5,,,,152.5,B,Multi-ply,1,,
George Johnson,USA,82.5,Masters 54-60,54-60,M,150,,,,150,B,Multi-ply,2,,
Tom Haggenmiller,USA,90,Masters 54-60,54-60,M,140,,,,140,B,Multi-ply,1,,
Flip Silva,USA,90,Masters 54-60,54-60,M,125,,,,125,B,Multi-ply,2,,
Toe Preston,USA,110,Masters 54-60,54-60,M,195,,,,195,B,Multi-ply,1,,
Joseph Fitzgerald,USA,110,Masters 54-60,54-60,M,145,,,,145,B,Multi-ply,2,,
Fred Keiser,USA,125,Masters 54-60,54-60,M,205,,,,205,B,Multi-ply,1,,
Robert O. Smith,Canada,140,Masters 54-60,54-60,M,200,,,,200,B,Multi-ply,1,,
Donald James,USA,140+,Masters 54-60,54-60,M,197.5,,,,197.5,B,Multi-ply,1,,
Larry Vincent,USA,67.5,Masters 61-67,61-67,M,117.5,,,,117.5,B,Multi-ply,1,,
Lindy Blas,USA,67.5,Masters 61-67,61-67,M,105,,,,105,B,Multi-ply,2,,
Jerry Gladson,USA,75,Masters 61-67,61-67,M,105,,,,105,B,Multi-ply,1,,
Donald Barden,USA,82.5,Masters 61-67,61-67,M,137.5,,,,137.5,B,Multi-ply,1,,
Ross Phillips,USA,82.5,Masters 61-67,61-67,M,120,,,,120,B,Multi-ply,2,,
Earl Cotton Jr,USA,90,Masters 61-67,61-67,M,137.5,,,,137.5,B,Multi-ply,1,,
Pete Wilson,USA,100,Masters 61-67,61-67,M,160,,,,160,B,Multi-ply,1,,90.72
Sidney Gendin,USA,100,Masters 61-67,61-67,M,102.5,,,,102.5,B,Multi-ply,2,,
John Green,USA,100,Masters 61-67,61-67,M,,,,,,B,Multi-ply,DQ,,
Dieter Frey,Germany,125,Masters 61-67,61-67,M,210,,,,210,B,Multi-ply,1,,
Doyle Chapman,USA,125,Masters 61-67,61-67,M,175,,,,175,B,Multi-ply,2,,
David Johnson,USA,125,Masters 61-67,61-67,M,162.5,,,,162.5,B,Multi-ply,3,,
James Schall,USA,75,Masters 68-74,68-74,M,105,,,,105,B,Multi-ply,1,71,
Joe Chapman,USA,90,Masters 68-74,68-74,M,150,,,,150,B,Multi-ply,1,,
Ed Hashim,USA,90,Masters 68-74,68-74,M,135,,,,135,B,Multi-ply,2,,
Bob Woods,USA,100,Masters 68-74,68-74,M,130,,,,130,B,Multi-ply,1,74,
Ralph Cavanaugh,USA,110,Masters 68-74,68-74,M,132.5,,,,132.5,B,Multi-ply,1,71,
Cal Davis,USA,110,Masters 68-74,68-74,M,110,,,,110,B,Multi-ply,2,,
Bob Hubbard,USA,125,Masters 68-74,68-74,M,162.5,,,,162.5,B,Multi-ply,1,68,
Sonny Ronolo,USA,75,Masters 75+,75-999,M,137.5,,,,137.5,B,Multi-ply,1,75,73.71
Gary Remiticado,USA,52,Teen 13-15,13-15,M,67.5,,,,67.5,B,Multi-ply,1,,
Jason Brecheen,USA,82.5,Teen 13-15,13-15,M,125,,,,125,B,Multi-ply,1,,
Ed Sun,USA,90,Teen 13-15,13-15,M,115,,,,115,B,Multi-ply,1,,
Dereck Couch,USA,140+,Teen 13-15,13-15,M,97.5,,,,97.5,B,Multi-ply,1,,
M. Quillan,USA,52,Teen 16-19,16-19,M,85,,,,85,B,Multi-ply,1,,
Steve Epling,USA,60,Teen 16-19,16-19,M,125,130,,,125,B,Multi-ply,1,,
Erick Greig,USA,60,Teen 16-19,16-19,M,100,,,,100,B,Multi-ply,2,,
Willard Crossen III,USA,67.5,Teen 16-19,16-19,M,122.5,,,,122.5,B,Multi-ply,1,,
Shan Smith,USA,67.5,Teen 16-19,16-19,M,110,,,,110,B,Multi-ply,2,,
Joe Bruno,USA,82.5,Teen 16-19,16-19,M,200,207.5,,,200,B,Multi-ply,1,,
David Foster,USA,82.5,Teen 16-19,16-19,M,167.5,,,,167.5,B,Multi-ply,2,,
Spencer Murphy,USA,82.5,Teen 16-19,16-19,M,145,,,,145,B,Multi-ply,3,,
Scott Schwandt,USA,82.5,Teen 16-19,16-19,M,142.5,,,,142.5,B,Multi-ply,4,,
Bill Mobley,USA,82.5,Teen 16-19,16-19,M,140,,,,140,B,Multi-ply,5,,
Adrian Larsen,USA,100,Teen 16-19,16-19,M,192.5,200,,,192.5,B,Multi-ply,1,,
Mike Johnson,USA,100,Teen 16-19,16-19,M,170,,,,170,B,Multi-ply,2,,
Earl Heth,USA,125,Teen 16-19,16-19,M,245,,,,245,B,Multi-ply,1,,
Chris Erhardt,USA,125,Teen 16-19,16-19,M,227.5,,,,227.5,B,Multi-ply,2,,
Jacob Clifton,USA,140,Teen 16-19,16-19,M,125,,,,125,B,Multi-ply,1,,
Christie Hansen,USA,60,Law/Fire,,F,77.5,,,,77.5,B,Multi-ply,1,,
Camelia Luprete,USA,67.5,Masters Law/Fire,40-999,F,65,,,,65,B,Multi-ply,1,,
Tania Akina,USA,44,Open,,F,27.5,,,,27.5,B,Single-ply,1,11,35.83
Carmella Baqui,USA,48,Open,,F,25,,,,25,B,Multi-ply,1,,
Jana Gedde,USA,52,Open,,F,77.5,,,,77.5,B,Multi-ply,1,40,
Aldena Plumlee,USA,52,Open,,F,57.5,,,,57.5,B,Multi-ply,2,,
Tonya Whitlock,USA,52,Open,,F,57.5,,,,57.5,B,Multi-ply,3,,
Shelley Radcliffe,USA,56,Open,,F,102.5,,,,102.5,B,Multi-ply,1,,
Jill Remiticado,USA,56,Open,,F,77.5,,,,77.5,B,Multi-ply,2,,
Amy Hughes,USA,60,Open,,F,102.5,,,,102.5,B,Multi-ply,1,,56.7
Judith Sverchek,USA,67.5,Open,,F,120,,,,120,B,Multi-ply,1,,
Bobette Burdick,USA,67.5,Open,,F,97.5,,,,97.5,B,Multi-ply,2,,
Sara Rowse,USA,75,Open,,F,92.5,97.5,,,92.5,B,Multi-ply,1,18,
Mary Jacobson,USA,75,Open,,F,82.5,,,,82.5,B,Multi-ply,2,,
Joyce Hamblin,USA,75,Open,,F,75,,,,75,B,Multi-ply,3,,
Anna Rosén,Sweden,82.5,Open,,F,120,,,,120,B,Multi-ply,1,,
Rhonda Dunn,USA,82.5,Open,,F,87.5,,,,87.5,B,Multi-ply,2,,
Sabrina Paola,USA,82.5,Open,,F,75,,,,75,B,Multi-ply,3,,
Jillian Bruno,USA,82.5,Open,,F,57.5,,,,57.5,B,Multi-ply,4,,
Rachel Perry,USA,90,Open,,F,100,105,,,100,B,Multi-ply,1,15,
Andrea McIntosh,USA,90,Open,,F,47.5,,,,47.5,B,Multi-ply,2,,
Regina Magno,USA,90+,Open,,F,85,,,,85,B,Multi-ply,1,,
Laura LaFrance,USA,90+,Open,,F,85,,,,85,B,Multi-ply,2,,
Sharon Warner,USA,48,Masters 40-46,40-46,F,52.5,,,,52.5,B,Multi-ply,1,,
Anne Peterson,USA,48,Masters 40-46,40-46,F,50,,,,50,B,Multi-ply,2,,
Sandra Hayes,USA,56,Masters 40-46,40-46,F,67.5,82.5,,,67.5,B,Multi-ply,1,,
Terry Marcoux,USA,60,Masters 40-46,40-46,F,47.5,,,,47.5,B,Multi-ply,1,,
JoAnn Bauer,USA,67.5,Masters 40-46,40-46,F,72.5,,,,72.5,B,Multi-ply,1,,
Laura Simpson,USA,75,Masters 40-46,40-46,F,82.5,,,,82.5,B,Multi-ply,1,,
Mary Jacobson,USA,75,Masters 40-46,40-46,F,82.5,,,,82.5,B,Multi-ply,2,,
Karen Hubbard,USA,82.5,Masters 40-46,40-46,F,67.5,,,,67.5,B,Multi-ply,1,,
Bonnie Cushman,USA,56,Masters 47-53,47-53,F,65,,,,65,B,Multi-ply,1,,
Pat Bryant,USA,56,Masters 47-53,47-53,F,65,,,,65,B,Multi-ply,2,,
Camelia Luprete,USA,67.5,Masters 47-53,47-53,F,65,,,,65,B,Multi-ply,1,,
Betty Lafferty,USA,52,Masters 54-60,54-60,F,62.5,,,,62.5,B,Multi-ply,1,,
Jo Walker,USA,60,Masters 54-60,54-60,F,70,,,,70,B,Multi-ply,1,55,58.06
Joyce Hamblin,USA,75,Masters 54-60,54-60,F,75,,,,75,B,Multi-ply,1,,
Marcia Turner,USA,67.5,Masters 61-67,61-67,F,42.5,,,,42.5,B,Multi-ply,1,67,
Renee Wilson,USA,67.5,Submasters,33-39,F,92.5,,,,92.5,B,Multi-ply,1,,
Colleen Lesperance,USA,67.5,Submasters,33-39,F,87.5,,,,87.5,B,Multi-ply,2,,
Stacy Moody,USA,75,Submasters,33-39,F,65,,,,65,B,Multi-ply,1,,
Rhonda Dunn,USA,82.5,Submasters,33-39,F,87.5,,,,87.5,B,Multi-ply,1,,
Lupe Aguilar,USA,56,Juniors,20-23,F,97.5,100,,,97.5,B,Multi-ply,1,,
Stephanie Guffie,USA,60,Juniors,20-23,F,72.5,,,,72.5,B,Multi-ply,1,,
Jennifer Doering,USA,75,Juniors,20-23,F,92.5,,,,92.5,B,Multi-ply,1,,
Lisa Spence,USA,75,Juniors,20-23,F,62.5,,,,62.5,B,Multi-ply,2,,
Tania Akina,USA,44,Teen 13-15,13-15,F,27.5,,,,27.5,B,Single-ply,1,,
R. Perry,USA,90,Teen 13-15,13-15,F,100,105,,,100,B,Multi-ply,1,,
Jill Remiticado,USA,56,Teen 16-19,16-19,F,77.5,,,,77.5,B,Multi-ply,1,,
Christie Hansen,USA,60,Teen 16-19,16-19,F,77.5,,,,77.5,B,Multi-ply,1,,
Sara Rowse,USA,75,Teen 16-19,16-19,F,92.5,97.5,,,92.5,B,Multi-ply,1,18,
Rachek Messer,USA,82.5,Teen 16-19,16-19,F,85,,,,85,B,Multi-ply,1,,
Jillian Bruno,USA,82.5,Teen 16-19,16-19,F,57.5,,,,57.5,B,Multi-ply,2,,
Lyndell Brode,USA,90+,Teen 16-19,16-19,F,92.5,95,,,92.5,B,Multi-ply,1,,
Tania Akina,USA,44,Open,,F,,,77.5,,77.5,D,Single-ply,1,,
Carmella Baqui,USA,48,Open,,F,,,92.5,97.5,92.5,D,Multi-ply,1,,
Janna Gedde,USA,52,Open,,F,,,155,,155,D,Multi-ply,1,40,
Aldena Plumlee,USA,52,Open,,F,,,,,,D,Multi-ply,DQ,,
Judith Sverchek,USA,67.5,Open,,F,,,182.5,,182.5,D,Multi-ply,1,,
Anna Rosén,Sweden,82.5,Open,,F,,,165,,165,D,Multi-ply,1,,
Jillian Bruno,USA,82.5,Open,,F,,,110,,110,D,Multi-ply,2,,
Rhonda Dunn,USA,82.5,Open,,F,,,107.5,,107.5,D,Multi-ply,3,,
Regina Magno,USA,90+,Open,,F,,,165,,165,D,Multi-ply,1,,
Wendy Greig,Canada,56,Masters 40-46,40-46,F,,,145,,145,D,Multi-ply,1,,
Sandra Hayes,USA,56,Masters 40-46,40-46,F,,,142.5,147.5,142.5,D,Multi-ply,2,,
JoAnn Bauer,USA,67.5,Masters 40-46,40-46,F,,,130,,130,D,Multi-ply,1,,
Bonnie Cushman,USA,56,Masters 47-53,47-53,F,,,115,,115,D,Multi-ply,1,,
Susan Gill,USA,67.5,Masters 47-53,47-53,F,,,160,,160,D,Multi-ply,1,,
Camelia Luprete,USA,67.5,Masters 47-53,47-53,F,,,117.5,,117.5,D,Multi-ply,2,,
Jo Walker,USA,60,Masters 54-60,54-60,F,,,172.5,,172.5,D,Multi-ply,1,55,58.06
Camelia Luprete,USA,67.5,Masters Law/Fire,40-999,F,,,117.5,,117.5,D,Multi-ply,1,,
Hazel Greene,Ireland,60,Submasters,33-39,F,,,145,,145,D,Multi-ply,1,,
Susan Gall,USA,67.5,Submasters,33-39,F,,,145,150,145,D,Multi-ply,1,,
Rhonda Dunn,USA,82.5,Submasters,33-39,F,,,107.5,,107.5,D,Multi-ply,1,,
Sarah Murray,USA,90+,Submasters,33-39,F,,,172.5,,172.5,D,Multi-ply,1,,
Tania Akina,USA,44,Teen,13-19,F,,,77.5,,77.5,D,Single-ply,1,,
A. Pacek,Canada,67.5,Teen,13-19,F,,,140,,140,D,Multi-ply,1,,
Jillian Bruno,USA,82.5,Teen,13-19,F,,,110,,110,D,Multi-ply,1,,
Lisa Spence,USA,75,Juniors,20-23,F,,,112.5,,112.5,D,Multi-ply,1,,
Gary Remiticado,USA,52,Teen 13-15,13-15,M,,,120,125,120,D,Multi-ply,1,,
Ed Sun,USA,90,Teen 13-15,13-15,M,,,,,,D,Multi-ply,DQ,,
Dereck Couch,USA,140+,Teen 13-15,13-15,M,,,132.5,,132.5,D,Multi-ply,1,,
Willard Crossen III,USA,67.5,Teen 16-19,16-19,M,,,172.5,,172.5,D,Multi-ply,1,,
Tony Caprari,USA,75,Teen 16-19,16-19,M,,,272.5,,272.5,D,Multi-ply,1,18,
J. Dunn,USA,75,Teen 16-19,16-19,M,,,227.5,,227.5,D,Multi-ply,2,,
Tyrese Hayes,USA,82.5,Teen 16-19,16-19,M,,,272.5,,272.5,D,Multi-ply,1,,
Joe Bruno,USA,82.5,Teen 16-19,16-19,M,,,240,,240,D,Multi-ply,2,,
Bill Mobley,USA,90,Teen 16-19,16-19,M,,,220,,220,D,Multi-ply,1,,
Mike Johnson,USA,100,Teen 16-19,16-19,M,,,172.5,,172.5,D,Multi-ply,1,,
J. Beasely,USA,100,Teen 16-19,16-19,M,,,167.5,,167.5,D,Multi-ply,2,,
Georgi Mindiashvili,Georgia,110,Teen 16-19,16-19,M,,,270,,270,D,Multi-ply,1,,
S. Elmlund,USA,125,Teen 16-19,16-19,M,,,187.5,,187.5,D,Multi-ply,1,,
Jacob Clifton,USA,140,Teen 16-19,16-19,M,,,192.5,,192.5,D,Multi-ply,1,,
Vilmar Oliveira,Brazil,75,Submasters,33-39,M,,,202.5,,202.5,D,Multi-ply,1,,
Dave Obaitek,USA,82.5,Submasters,33-39,M,,,277.5,,277.5,D,Multi-ply,1,,
Robert Walker,USA,82.5,Submasters,33-39,M,,,250,,250,D,Multi-ply,2,,
Dan Belanger,USA,82.5,Submasters,33-39,M,,,240,,240,D,Multi-ply,3,,
Bob Mosteller,USA,82.5,Submasters,33-39,M,,,237.5,,237.5,D,Multi-ply,4,,
Steven Gall,USA,82.5,Submasters,33-39,M,,,220,,220,D,Multi-ply,5,,
Allen Berry,USA,82.5,Submasters,33-39,M,,,217.5,,217.5,D,Multi-ply,6,,
Robert Straker,USA,82.5,Submasters,33-39,M,,,190,,190,D,Multi-ply,7,,
Brian Baertlein,USA,90,Submasters,33-39,M,,,265,,265,D,Multi-ply,1,,
Johnny Hernandez,USA,90,Submasters,33-39,M,,,227.5,,227.5,D,Multi-ply,2,,
Ken Harris,USA,100,Submasters,33-39,M,,,305,,305,D,Multi-ply,1,,
Buzz McCanse,USA,100,Submasters,33-39,M,,,290,,290,D,Multi-ply,2,,
Z. Clark,USA,100,Submasters,33-39,M,,,267.5,,267.5,D,Multi-ply,3,,
Kevin Stecki,USA,110,Submasters,33-39,M,,,310,,310,D,Multi-ply,1,,
Bob Vessels,USA,125,Submasters,33-39,M,,,322.5,,322.5,D,Multi-ply,1,,
Agnar Adalsteinsson,Iceland,125,Submasters,33-39,M,,,307.5,,307.5,D,Multi-ply,2,,
William Pontius,USA,125,Submasters,33-39,M,,,277.5,,277.5,D,Multi-ply,3,,
R. Uhl,USA,125,Submasters,33-39,M,,,267.5,,267.5,D,Multi-ply,4,,
Phil Morrison,USA,125,Submasters,33-39,M,,,257.5,,257.5,D,Multi-ply,5,,
Gregg Ramsdell,USA,125,Submasters,33-39,M,,,235,,235,D,Multi-ply,6,,
Axel Adalsteinsson,Iceland,140,Submasters,33-39,M,,,292.5,,292.5,D,Multi-ply,1,,
Paul Ratsch,USA,140+,Submasters,33-39,M,,,307.5,,307.5,D,Multi-ply,1,,
Steve McMillan,USA,75,Juniors,20-23,M,,,187.5,,187.5,D,Multi-ply,1,,
Steve Manley,USA,82.5,Juniors,20-23,M,,,282.5,287.5,282.5,D,Multi-ply,1,,
David Anderson #6,USA,90,Juniors,20-23,M,,,182.5,,182.5,D,Multi-ply,1,,
Casey Smith,USA,100,Juniors,20-23,M,,,260,,260,D,Multi-ply,1,,
Matt LaMarque,USA,100,Juniors,20-23,M,,,,,,D,Multi-ply,DQ,,
Troy Hamilton,USA,110,Juniors,20-23,M,,,260,,260,D,Multi-ply,1,,
Michael. Knudsen,USA,110,Juniors,20-23,M,,,242.5,,242.5,D,Multi-ply,2,,
Kevin Rose,USA,110,Juniors,20-23,M,,,200,,200,D,Multi-ply,3,,
Joel Thiessen,Canada,125,Juniors,20-23,M,,,235,,235,D,Multi-ply,1,,
Andrew Snider,USA,125,Juniors,20-23,M,,,230,,230,D,Multi-ply,2,,
Corey St. Clair,USA,140,Juniors,20-23,M,,,250,,250,D,Multi-ply,1,,
Murray Cairns,Canada,140,Juniors,20-23,M,,,200,,200,D,Multi-ply,2,,
B. Keynon,USA,90,Masters Law/Fire 38-46,38-46,M,,,192.5,,192.5,D,Multi-ply,1,,
Jeff Holloway,USA,100,Masters Law/Fire 38-46,38-46,M,,,227.5,,227.5,D,Multi-ply,1,,
Ted Butler,USA,90,Masters Law/Fire 47+,47-999,M,,,265,,265,D,Multi-ply,1,,
Ken Tuten,USA,90,Masters Law/Fire 47+,47-999,M,,,220,,220,D,Multi-ply,2,,
W. Kaimikaua,USA,90,Masters Law/Fire 47+,47-999,M,,,170,,170,D,Multi-ply,3,,
Patrick Fay,USA,110,Masters Law/Fire 47+,47-999,M,,,267.5,275,267.5,D,Multi-ply,1,,
Ken Snell,USA,56,Masters 40-46,40-46,M,,,212.5,,212.5,D,Multi-ply,1,,
Freddie Evangelista,USA,67.5,Masters 40-46,40-46,M,,,192.5,,192.5,D,Multi-ply,1,,
Vick Snyder,USA,75,Masters 40-46,40-46,M,,,187.5,,187.5,D,Multi-ply,1,,
Mark Moore,USA,82.5,Masters 40-46,40-46,M,,,205,,205,D,Multi-ply,1,,
Davi Stratton,USA,90,Masters 40-46,40-46,M,,,282.5,,282.5,D,Multi-ply,1,,
Joe Costa,USA,90,Masters 40-46,40-46,M,,,275,,275,D,Multi-ply,2,,
Warren Orbaugh,Guatemala,90,Masters 40-46,40-46,M,,,235,,235,D,Multi-ply,3,,
D. Wilson #2,USA,90,Masters 40-46,40-46,M,,,232.5,,232.5,D,Multi-ply,4,,
Andersf Wahland,Sweden,100,Masters 40-46,40-46,M,,,272.5,,272.5,D,Multi-ply,1,,
Jerry Capello,USA,110,Masters 40-46,40-46,M,,,300,,300,D,Multi-ply,1,,
Ioseb Kharabdzae,Georgia,110,Masters 40-46,40-46,M,,,265,,265,D,Multi-ply,2,,
Roger Nelson,USA,110,Masters 40-46,40-46,M,,,252.5,,252.5,D,Multi-ply,3,,
G. Litzau,USA,110,Masters 40-46,40-46,M,,,222.5,,222.5,D,Multi-ply,4,,
Andrew Stewart,USA,125,Masters 40-46,40-46,M,,,365,,365,D,Single-ply,1,,
Bruce Greig,USA,125,Masters 40-46,40-46,M,,,350,,350,D,Multi-ply,2,,
S. Blassingame,USA,125,Masters 40-46,40-46,M,,,295,,295,D,Multi-ply,3,,
Steve Brown,USA,125,Masters 40-46,40-46,M,,,237.5,,237.5,D,Multi-ply,4,,
B. Romine,USA,125,Masters 40-46,40-46,M,,,,,,D,Multi-ply,DQ,,
Sam Pecktol,USA,140,Masters 40-46,40-46,M,,,310,,310,D,Multi-ply,1,,
Brian Rehberg,USA,140+,Masters 40-46,40-46,M,,,285,,285,D,Multi-ply,1,,
Michael Cain,USA,140+,Masters 40-46,40-46,M,,,280,,280,D,Multi-ply,2,,
Keith Ward,USA,140+,Masters 40-46,40-46,M,,,,,,D,Multi-ply,DQ,,
Anthony Pasqualetti,USA,75,Masters 47-53,47-53,M,,,172.5,,172.5,D,Multi-ply,1,,
G. Alexander,USA,82.5,Masters 47-53,47-53,M,,,255,,255,D,Multi-ply,1,,
Ted Butler,USA,90,Masters 47-53,47-53,M,,,265,,265,D,Multi-ply,1,,
Tommy Green,USA,90,Masters 47-53,47-53,M,,,227.5,,227.5,D,Multi-ply,2,,
Willie Charlie Jones,USA,90,Masters 47-53,47-53,M,,,210,,210,D,Multi-ply,3,,
Godfrey Holzinger,USA,90,Masters 47-53,47-53,M,,,200,,200,D,Multi-ply,4,,
Bill Anderberg,USA,100,Masters 47-53,47-53,M,,,232.5,,232.5,D,Multi-ply,1,,
Dave Cheek,USA,100,Masters 47-53,47-53,M,,,230,,230,D,Multi-ply,2,,
Mike Fryar,USA,110,Masters 47-53,47-53,M,,,272.5,275,272.5,D,Multi-ply,1,,
Patrick Fay,USA,110,Masters 47-53,47-53,M,,,267.5,275,267.5,D,Multi-ply,2,,
Gary Miller #5,USA,110,Masters 47-53,47-53,M,,,265,,265,D,Multi-ply,3,,
Mike Magruder,USA,110,Masters 47-53,47-53,M,,,240,,240,D,Multi-ply,4,,
Tom Hennessy,USA,110,Masters 47-53,47-53,M,,,220,,220,D,Multi-ply,5,,
Ken Tuten,USA,90,Masters 54-60,54-60,M,,,245,,245,D,Multi-ply,1,,
Tom Haggenmiller,USA,90,Masters 54-60,54-60,M,,,242.5,,242.5,D,Multi-ply,2,,
Felipe Silva,USA,90,Masters 54-60,54-60,M,,,137.5,,137.5,D,Multi-ply,3,,
Toe Preston,USA,110,Masters 54-60,54-60,M,,,287.5,,287.5,D,Multi-ply,1,,
Robert O. Smith,Canada,140,Masters 54-60,54-60,M,,,260,,260,D,Multi-ply,1,,
Donald James,USA,140+,Masters 54-60,54-60,M,,,217.5,,217.5,D,Multi-ply,1,,
Lindy Blas,USA,67.5,Masters 61-67,61-67,M,,,195,200,195,D,Multi-ply,1,,
Larry Vincent,USA,67.5,Masters 61-67,61-67,M,,,162.5,,162.5,D,Multi-ply,2,,
Ross Phillips,USA,82.5,Masters 61-67,61-67,M,,,240,,240,D,Multi-ply,1,,
Phillip Swaim,USA,90,Masters 61-67,61-67,M,,,245,,245,D,Multi-ply,1,,
Earl Cotton Jr,USA,90,Masters 61-67,61-67,M,,,200,205,200,D,Multi-ply,2,,
W. Kaimikaua,USA,90,Masters 61-67,61-67,M,,,170,,170,D,Multi-ply,3,,
John Green,USA,100,Masters 61-67,61-67,M,,,232.5,,232.5,D,Multi-ply,1,,
Don Inman,USA,110,Masters 61-67,61-67,M,,,185,,185,D,Multi-ply,1,,
R. Cox,Mexico,110,Masters 61-67,61-67,M,,,175,,175,D,Multi-ply,2,,
James Schall,USA,75,Masters 68-74,68-74,M,,,155,,155,D,Multi-ply,1,71,
Bill Ramsrud,USA,82.5,Masters 68-74,68-74,M,,,192.5,,192.5,D,Multi-ply,1,70,
Chuck Anderson,USA,90,Masters 68-74,68-74,M,,,192.5,,192.5,D,Multi-ply,1,72,
Bob Woods,USA,100,Masters 68-74,68-74,M,,,195,,195,D,Multi-ply,1,74,
Ken Pardee,USA,110,Masters 68-74,68-74,M,,,227.5,,227.5,D,Multi-ply,1,70,
Ralph Cavanaugh,USA,110,Masters 68-74,68-74,M,,,215,,215,D,Multi-ply,2,71,
Cal Davis,USA,110,Masters 68-74,68-74,M,,,170,,170,D,Multi-ply,3,,
Walter Richter,USA,75,Masters 75+,75-999,M,,,142.5,,142.5,D,Multi-ply,1,76,72.57
Ken Snell,USA,56,Open,,M,,,212.5,,212.5,D,Multi-ply,1,,
Jody Cranston,Canada,67.5,Open,,M,,,227.5,,227.5,D,Multi-ply,1,,
Wesley Kampen,USA,67.5,Open,,M,,,195,,195,D,Multi-ply,2,,
Freddie Evangelista,USA,67.5,Open,,M,,,192.5,,192.5,D,Multi-ply,3,,
Tony Caprari,USA,75,Open,,M,,,272.5,,272.5,D,Multi-ply,1,18,
Richard House,USA,75,Open,,M,,,267.5,,267.5,D,Multi-ply,2,,
T. Fay,USA,75,Open,,M,,,182.5,,182.5,D,Multi-ply,3,,
Robert Walker,USA,82.5,Open,,M,,,250,,250,D,Multi-ply,1,,
Flavio Danna,Brazil,82.5,Open,,M,,,240,,240,D,Multi-ply,2,,
Joe Bruno,USA,82.5,Open,,M,,,240,,240,D,Multi-ply,3,,
J. Minor,USA,82.5,Open,,M,,,220,,220,D,Multi-ply,4,,
Robert Straker,USA,82.5,Open,,M,,,190,,190,D,Multi-ply,5,,
E. Thomas,USA,82.5,Open,,M,,,,,,D,Multi-ply,DQ,,
Vinson Keyhea Jr,USA,90,Open,,M,,,,,,D,Multi-ply,DQ,,
Evando Casagrande,Brazil,90,Open,,M,,,295,,295,D,Single-ply,1,,
Don DeCaprio,USA,90,Open,,M,,,290,,290,D,Multi-ply,2,,
Kevin Posey,USA,90,Open,,M,,,275,,275,D,Multi-ply,3,,
R. Trewin,USA,90,Open,,M,,,267.5,,267.5,D,Multi-ply,4,,
M. Wechter,USA,90,Open,,M,,,265,,265,D,Multi-ply,5,,
P. Beck,USA,90,Open,,M,,,265,,265,D,Multi-ply,6,,
T. Summers,USA,90,Open,,M,,,237.5,,237.5,D,Multi-ply,7,,
Jeff Hoiby,USA,90,Open,,M,,,227.5,,227.5,D,Multi-ply,8,,
Johnny Hernandez,USA,90,Open,,M,,,227.5,,227.5,D,Multi-ply,9,,
Felipe Silva,USA,90,Open,,M,,,137.5,,137.5,D,Multi-ply,10,,
Brent Howard,USA,100,Open,,M,,,320,,320,D,Multi-ply,1,,
Mike Camlin,USA,100,Open,,M,,,320,,320,D,Multi-ply,2,,
Ken Harris,USA,100,Open,,M,,,305,,305,D,Multi-ply,3,,
Buzz McCanse,USA,100,Open,,M,,,290,,290,D,Multi-ply,4,,
B. Snelson,USA,100,Open,,M,,,277.5,,277.5,D,Multi-ply,5,,
Matt Crosby,USA,100,Open,,M,,,272.5,,272.5,D,Multi-ply,6,,
Z. Clark,USA,100,Open,,M,,,267.5,,267.5,D,Multi-ply,7,,
Kevin Stecki,USA,110,Open,,M,,,310,,310,D,Multi-ply,1,,
Troy Fryar,USA,110,Open,,M,,,282.5,,282.5,D,Multi-ply,2,,
Felipe Silva,USA,110,Open,,M,,,227.5,,227.5,D,Multi-ply,3,,
Andrew Stewart,USA,125,Open,,M,,,365,,365,D,Single-ply,1,,
Bruce Greig,Canada,125,Open,,M,,,350,,350,D,Multi-ply,2,,
Bob Vessels,USA,125,Open,,M,,,322.5,,322.5,D,Multi-ply,3,,
Grant Higa,USA,125,Open,,M,,,305,,305,D,Multi-ply,4,,
B. Arizumi,USA,125,Open,,M,,,302.5,,302.5,D,Multi-ply,5,,
S. Steffy,USA,125,Open,,M,,,270,,270,D,Multi-ply,6,,
D. Askanas,USA,125,Open,,M,,,,,,D,Multi-ply,DQ,,
Brent Mikesell,USA,140,Open,,M,,,337.5,,337.5,D,Multi-ply,1,,
Dean Munsey,USA,140+,Open,,M,,,317.5,,317.5,D,Multi-ply,1,,
Paul Ratsch,USA,140+,Open,,M,,,307.5,,307.5,D,Multi-ply,2,,
Vince Eldridge,USA,140+,Open,,M,,,307.5,,307.5,D,Multi-ply,3,,
R. Hudson,USA,140+,Open,,M,,,305,,305,D,Multi-ply,4,,
Anthony Troutman,Canada,140+,Open,,M,,,282.5,,282.5,D,Multi-ply,5,,
B. Baker,Canada,140+,Open,,M,,,260,,260,D,Multi-ply,6,,
