Name,WeightClassKg,Best3SquatKg,Best3BenchKg,Best3DeadliftKg,TotalKg,Sex,Event,Equipment,Division,Place
Daniel Thomas #1,56,125,67.5,153,345,M,SBD,Single-ply,Open,1
Antoinette Bennett,60,70,57.5,100,227.5,F,SBD,Single-ply,Open,1
Romina Sich,60,105,70,133,307.5,F,SBD,Single-ply,Open,1
Terry Ticehurst,67.5,117.5,67.5,137.5,322.5,M,SBD,Single-ply,Open,1
Chad Muir,67.5,122.5,57.5,142.5,322.5,M,SBD,Single-ply,Open,2
Sarah Stojsavljevic,67.5,85,50,107.5,242.5,F,SBD,Single-ply,Open,1
Brett Johns,82.5,212.5,115,220,547.5,M,SBD,Single-ply,Open,1
