Name,WeightClassKg,Division,Sex,Best3SquatKg,Best3BenchKg,Best3DeadliftKg,TotalKg,Event,Equipment,Place
Pam Jeffrey,52,Open,F,115.67,45.36,120.2,281.23,SBD,Single-ply,1
M. Barrows,56,Open,F,86.18,40.82,106.59,233.6,SBD,Single-ply,1
S. Ellis,56,Open,F,65.77,38.56,97.52,201.85,SBD,Single-ply,2
L. McIver,56,Open,F,72.57,31.75,88.45,192.78,SBD,Single-ply,3
D. Paxton,60,Open,F,70.31,45.36,70.31,185.97,SBD,Single-ply,1
B. Bennett,60,Open,F,65.77,20.41,90.72,176.9,SBD,Single-ply,2
J. Robertson,75,Open,F,77.11,40.82,79.38,197.31,SBD,Single-ply,1
Austin Miller,110,Masters,M,226.8,136.08,204.12,566.99,SBD,Single-ply,1
